// Jest Snapshot v1, https://goo.gl/fbAQLP

exports[`Input should render the component 1`] = `
<DocumentFragment>
  <div
    class="Input__Container"
  >
    <label
      data-testid="input--label--test"
      for="labelText"
    >
      labelText:
    </label>
    <input
      aria-label="labelText"
      data-testid="input--test"
      id="labelText"
      type="text"
      value=""
    />
  </div>
</DocumentFragment>
`;

exports[`Input should show the required pseudo if set 1`] = `
<DocumentFragment>
  <div
    class="Input__Container Input__Container_Required"
  >
    <label
      data-testid="input--label--test"
      for="labelText"
    >
      labelText:
    </label>
    <input
      aria-label="labelText"
      aria-required="true"
      data-testid="input--test"
      id="labelText"
      type="text"
      value=""
    />
  </div>
</DocumentFragment>
`;
